SX1278.c:19:13:SX1278_hw_init	16	static
SX1278.c:24:13:SX1278_hw_SetNSS	16	static
SX1278.c:29:13:SX1278_hw_Reset	16	static
SX1278.c:40:13:SX1278_hw_SPICommand	16	static
SX1278.c:47:16:SX1278_hw_SPIReadByte	32	static
SX1278.c:58:13:SX1278_hw_DelayMs	16	static
SX1278.c:62:12:SX1278_hw_GetDIO0	16	static
SX1278.c:70:9:SX1278_SPIRead	24	static
SX1278.c:78:6:SX1278_SPIWrite	16	static
SX1278.c:85:6:SX1278_SPIBurstRead	40	static
SX1278.c:100:6:SX1278_SPIBurstWrite	32	static
SX1278.c:115:6:SX1278_defaultConfig	24	static
SX1278.c:120:6:SX1278_config	24	static
SX1278.c:171:6:SX1278_standby	16	static
SX1278.c:176:6:SX1278_sleep	16	static
SX1278.c:181:6:SX1278_entryLoRa	16	static
SX1278.c:185:6:SX1278_clearLoRaIrq	16	static
SX1278.c:189:5:SX1278_LoRaEntryRx	32	static
SX1278.c:221:9:SX1278_LoRaRxPacket	24	static
SX1278.c:244:5:SX1278_LoRaEntryTx	32	static
SX1278.c:275:5:SX1278_LoRaTxPacket	24	static
SX1278.c:296:6:SX1278_begin	16	static
SX1278.c:307:5:SX1278_transmit	24	static
SX1278.c:315:5:SX1278_receive	24	static
SX1278.c:319:9:SX1278_available	16	static
SX1278.c:323:9:SX1278_read	24	static
SX1278.c:332:9:SX1278_RSSI_LoRa	24	static
SX1278.c:339:9:SX1278_RSSI	24	static
